\relax 
\@writefile{toc}{\contentsline {section}{\numberline {1}Introduction}{2}}
\@writefile{toc}{\contentsline {section}{\numberline {2}Basic Theory}{2}}
\@writefile{toc}{\contentsline {section}{\numberline {3}Implementation}{2}}
\@writefile{toc}{\contentsline {subsection}{\numberline {3.1}Selection}{2}}
\newlabel{eq:1}{{1}{2}}
\@writefile{toc}{\contentsline {subsection}{\numberline {3.2}Cross-over}{2}}
\@writefile{toc}{\contentsline {subsection}{\numberline {3.3}Mutation}{3}}
\newlabel{eq:2}{{2}{3}}
\newlabel{eq:3}{{3}{3}}
\newlabel{eq:4}{{4}{3}}
\@writefile{toc}{\contentsline {section}{\numberline {4}Example Functions}{3}}
\@writefile{toc}{\contentsline {subsection}{\numberline {4.1}Rosenbrock Function}{4}}
\@writefile{toc}{\contentsline {subsection}{\numberline {4.2}Quadric Function}{4}}
\@writefile{toc}{\contentsline {subsection}{\numberline {4.3}Ackley Function}{4}}
\@writefile{toc}{\contentsline {subsection}{\numberline {4.4}Rastrigin Function}{4}}
\@writefile{toc}{\contentsline {section}{\numberline {5}Results}{4}}
\@writefile{toc}{\contentsline {subsection}{\numberline {5.1}Rosenbrock Function}{5}}
\@writefile{lof}{\contentsline {figure}{\numberline {1}{\ignorespaces Counts for each type of mutation for the Rosenbrock function optimized using 10 dimensions, population of 20, and 8000 iterations}}{5}}
\newlabel{fig:rosenbrock1}{{1}{5}}
\@writefile{lof}{\contentsline {figure}{\numberline {2}{\ignorespaces Rosenbrock function optimized using 10 dimensions, population of 20, and 8000 iterations}}{5}}
\newlabel{fig:rosenbrock2}{{2}{5}}
\@writefile{toc}{\contentsline {subsection}{\numberline {5.2}Quadric Function}{6}}
\@writefile{lof}{\contentsline {figure}{\numberline {3}{\ignorespaces Quadric function optimized using 10 dimensions, population of 20, and 8000 iterations}}{6}}
\newlabel{fig:quadric1}{{3}{6}}
\@writefile{lof}{\contentsline {figure}{\numberline {4}{\ignorespaces Quadric function optimized using 20 dimensions, population of 20, and 8000 iterations}}{6}}
\newlabel{fig:quadric2}{{4}{6}}
\@writefile{toc}{\contentsline {subsection}{\numberline {5.3}Ackley Function}{7}}
\@writefile{lof}{\contentsline {figure}{\numberline {5}{\ignorespaces Ackley function optimized using 10 dimensions, population of 20, and 8000 iterations}}{7}}
\newlabel{fig:ackley1}{{5}{7}}
\@writefile{lof}{\contentsline {figure}{\numberline {6}{\ignorespaces Ackley function optimized using 20 dimensions, population of 20, and 8000 iterations}}{7}}
\newlabel{fig:ackley2}{{6}{7}}
\@writefile{toc}{\contentsline {subsection}{\numberline {5.4}Rastrigin Function}{8}}
\@writefile{lof}{\contentsline {figure}{\numberline {7}{\ignorespaces Rastrigin function optimized using 10 dimensions, population of 20, and 8000 iterations}}{8}}
\newlabel{fig:rastrigin1}{{7}{8}}
\@writefile{lof}{\contentsline {figure}{\numberline {8}{\ignorespaces Rastrigin function optimized using 20 dimensions, population of 20, and 8000 iterations}}{8}}
\newlabel{fig:rastrigin2}{{8}{8}}
\@writefile{toc}{\contentsline {section}{\numberline {6}Conclusion}{9}}
\@writefile{toc}{\contentsline {section}{\numberline {7}Bibliography}{9}}
